<?xml version="1.0" encoding="utf-8"?>
<svg xmlns="http://www.w3.org/2000/svg" xmlns:xlink="http://www.w3.org/1999/xlink" style="margin: auto; background: none; display: block; shape-rendering: auto; color: red;" width="200px" height="200px" viewBox="0 0 100 100" preserveAspectRatio="xMidYMid">
<circle cx="50" cy="50" r="32" stroke-width="8" stroke="rgba(165, 167, 179, 0.8036128776304183)" stroke-dasharray="50.26548245743669 50.26548245743669" fill="none" stroke-linecap="round" transform="rotate(61.2882 50 50)">
  <animateTransform attributeName="transform" type="rotate" repeatCount="indefinite" dur="1.2345679012345678s" keyTimes="0;1" values="0 50 50;360 50 50"></animateTransform>
</circle>
<!-- [ldio] generated by https://loading.io/ --></svg>